<svg xmlns="http://www.w3.org/2000/svg" width="8.372" height="8.16" viewBox="0 0 8.372 8.16">
    <defs>
        <style>
            .cls-1{fill:#fff}
        </style>
    </defs>
    <path id="arrow-right-solid" d="M3.559 38.2l.415-.415a.447.447 0 0 1 .633 0l3.632 3.63a.447.447 0 0 1 0 .633l-3.631 3.63a.447.447 0 0 1-.633 0l-.415-.415a.449.449 0 0 1 .007-.641l2.251-2.145H.448A.447.447 0 0 1 0 42.029v-.6a.447.447 0 0 1 .448-.448h5.37l-2.251-2.144a.446.446 0 0 1-.008-.637z" class="cls-1" transform="translate(0 -37.65)"/>
</svg>
