<svg xmlns="http://www.w3.org/2000/svg" width="19.769" height="19.765" viewBox="0 0 19.769 19.765">
    <path id="prefix__instagram-brands" d="M9.812 36.64a5.067 5.067 0 1 0 5.067 5.067 5.059 5.059 0 0 0-5.067-5.067zm0 8.362a3.294 3.294 0 1 1 3.295-3.294A3.3 3.3 0 0 1 9.812 45zm6.457-8.569a1.182 1.182 0 1 1-1.182-1.182 1.179 1.179 0 0 1 1.182 1.182zm3.356 1.2a5.849 5.849 0 0 0-1.6-4.141 5.888 5.888 0 0 0-4.141-1.6c-1.632-.093-6.523-.093-8.155 0a5.879 5.879 0 0 0-4.141 1.592 5.868 5.868 0 0 0-1.6 4.141c-.093 1.632-.093 6.523 0 8.155a5.849 5.849 0 0 0 1.6 4.141 5.9 5.9 0 0 0 4.141 1.6c1.632.093 6.523.093 8.155 0a5.849 5.849 0 0 0 4.141-1.6 5.888 5.888 0 0 0 1.6-4.141c.093-1.629.093-6.516 0-8.148zm-2.108 9.9a3.335 3.335 0 0 1-1.879 1.879c-1.3.516-4.388.4-5.826.4s-4.529.115-5.826-.4a3.335 3.335 0 0 1-1.879-1.879c-.516-1.3-.4-4.388-.4-5.826s-.115-4.529.4-5.826A3.335 3.335 0 0 1 3.986 34c1.3-.516 4.388-.4 5.826-.4s4.529-.115 5.826.4a3.335 3.335 0 0 1 1.879 1.879c.516 1.3.4 4.388.4 5.826s.116 4.532-.4 5.828z" transform="translate(.075 -31.825)" style="fill:#f77062"/>
</svg>
